{
  "content": [
    {
      "id": 11,
      "title": "제목11",
      "content": "내용11",
      "writer": "글쓴이11",
      "createdDate": null,
      "views": 0
    },
    {
      "id": 12,
      "title": "제목12",
      "content": "내용12",
      "writer": "글쓴이12",
      "createdDate": null,
      "views": 0
    },
    {
      "id": 13,
      "title": "제목13",
      "content": "내용13",
      "writer": "글쓴이13",
      "createdDate": null,
      "views": 0
    },
    {
      "id": 14,
      "title": "제목14",
      "content": "내용14",
      "writer": "글쓴이14",
      "createdDate": null,
      "views": 0
    },
    {
      "id": 15,
      "title": "제목15",
      "content": "내용15",
      "writer": "글쓴이15",
      "createdDate": null,
      "views": 0
    },
    {
      "id": 16,
      "title": "제목16",
      "content": "내용16",
      "writer": "글쓴이16",
      "createdDate": null,
      "views": 0
    },
    {
      "id": 17,
      "title": "제목17",
      "content": "내용17",
      "writer": "글쓴이17",
      "createdDate": null,
      "views": 0
    },
    {
      "id": 18,
      "title": "제목18",
      "content": "내용18",
      "writer": "글쓴이18",
      "createdDate": null,
      "views": 0
    },
    {
      "id": 19,
      "title": "제목19",
      "content": "내용19",
      "writer": "글쓴이19",
      "createdDate": null,
      "views": 0
    },
    {
      "id": 20,
      "title": "제목20",
      "content": "내용20",
      "writer": "글쓴이20",
      "createdDate": null,
      "views": 0
    }
  ],
  "pageable": {
    "sort": {
      "sorted": true,
      "unsorted": false,
      "empty": false
    },
    "offset": 10,
    "pageNumber": 1,
    "pageSize": 10,
    "unpaged": false,
    "paged": true
  },
  "last": false,
  "totalElements": 41,
  "totalPages": 5,
  "size": 10,
  "number": 1,
  "sort": {
    "sorted": true,
    "unsorted": false,
    "empty": false
  },
  "first": false,
  "numberOfElements": 10,
  "empty": false
}