{
  "content": [
    {
      "id": 41,
      "title": "제목41",
      "content": "내용41",
      "writer": "글쓴이41",
      "createdDate": null,
      "views": 0
    },
    {
      "id": 31,
      "title": "제목31",
      "content": "내용31",
      "writer": "글쓴이31",
      "createdDate": null,
      "views": 0
    },
    {
      "id": 21,
      "title": "제목21",
      "content": "내용21",
      "writer": "글쓴이21",
      "createdDate": null,
      "views": 0
    },
    {
      "id": 19,
      "title": "제목19",
      "content": "내용19",
      "writer": "글쓴이19",
      "createdDate": null,
      "views": 0
    },
    {
      "id": 18,
      "title": "제목18",
      "content": "내용18",
      "writer": "글쓴이18",
      "createdDate": null,
      "views": 0
    },
    {
      "id": 17,
      "title": "제목17",
      "content": "내용17",
      "writer": "글쓴이17",
      "createdDate": null,
      "views": 0
    },
    {
      "id": 16,
      "title": "제목16",
      "content": "내용16",
      "writer": "글쓴이16",
      "createdDate": null,
      "views": 0
    },
    {
      "id": 15,
      "title": "제목15",
      "content": "내용15",
      "writer": "글쓴이15",
      "createdDate": null,
      "views": 0
    },
    {
      "id": 14,
      "title": "제목14",
      "content": "내용14",
      "writer": "글쓴이14",
      "createdDate": null,
      "views": 0
    },
    {
      "id": 13,
      "title": "제목13",
      "content": "내용13",
      "writer": "글쓴이13",
      "createdDate": null,
      "views": 0
    }
  ],
  "pageable": {
    "sort": {
      "unsorted": false,
      "sorted": true,
      "empty": false
    },
    "offset": 0,
    "pageNumber": 0,
    "pageSize": 10,
    "paged": true,
    "unpaged": false
  },
  "last": false,
  "totalPages": 2,
  "totalElements": 14,
  "size": 10,
  "number": 0,
  "sort": {
    "unsorted": false,
    "sorted": true,
    "empty": false
  },
  "first": true,
  "numberOfElements": 10,
  "empty": false
}